{
  "project_info": {
    "project_id": "nupi-1015",
    "project_number": "725160552840",
    "name": "Nupi"
  },
  "client": [
    {
      "client_info": {
        "mobilesdk_app_id": "1:725160552840:android:f7f6b1aed11e9f2a",
        "client_id": "android:com.nupi.agent",
        "client_type": 1,
        "android_client_info": {
          "package_name": "com.nupi.agent"
        }
      },
      "oauth_client": [],
      "api_key": [],
      "services": {
        "analytics_service": {
          "status": 1
        },
        "cloud_messaging_service": {
          "status": 2,
          "apns_config": []
        },
        "appinvite_service": {
          "status": 1,
          "other_platform_oauth_client": []
        },
        "google_signin_service": {
          "status": 1
        },
        "ads_service": {
          "status": 1
        }
      }
    }
  ],
  "client_info": [],
  "ARTIFACT_VERSION": "1"
}